<?xml version="1.0" encoding="UTF-8" standalone="no"?>
<svg
   sodipodi:docname="Trill.svg"
   inkscape:version="1.1.1 (3bf5ae0d25, 2021-09-20)"
   id="svg8"
   version="1.1"
   viewBox="0 0 225 225"
   height="225mm"
   width="225mm"
   xmlns:inkscape="http://www.inkscape.org/namespaces/inkscape"
   xmlns:sodipodi="http://sodipodi.sourceforge.net/DTD/sodipodi-0.dtd"
   xmlns="http://www.w3.org/2000/svg"
   xmlns:svg="http://www.w3.org/2000/svg"
   xmlns:rdf="http://www.w3.org/1999/02/22-rdf-syntax-ns#"
   xmlns:cc="http://creativecommons.org/ns#"
   xmlns:dc="http://purl.org/dc/elements/1.1/">
  <defs
     id="defs2" />
  <sodipodi:namedview
     inkscape:document-rotation="0"
     inkscape:window-maximized="1"
     inkscape:window-y="0"
     inkscape:window-x="1920"
     inkscape:window-height="1411"
     inkscape:window-width="2560"
     showgrid="false"
     inkscape:current-layer="layer1"
     inkscape:document-units="mm"
     inkscape:cy="453.66713"
     inkscape:cx="518.8834"
     inkscape:zoom="1.9320333"
     inkscape:pageshadow="2"
     inkscape:pageopacity="0.0"
     borderopacity="1.0"
     bordercolor="#666666"
     pagecolor="#ffffff"
     id="base"
     inkscape:pagecheckerboard="0" />
  <metadata
     id="metadata5">
    <rdf:RDF>
      <cc:Work
         rdf:about="">
        <dc:format>image/svg+xml</dc:format>
        <dc:type
           rdf:resource="http://purl.org/dc/dcmitype/StillImage" />
        <dc:title />
      </cc:Work>
    </rdf:RDF>
  </metadata>
  <g
     transform="translate(0,-72)"
     id="layer1"
     inkscape:groupmode="layer"
     inkscape:label="Ebene 1">
    <path
       style="fill:#fe006d;stroke-width:1"
       d="m 166.32348,189.92807 v -77.95846 h 28.13538 28.13539 v 10.35538 10.35539 h -14.06769 -14.0677 v 67.60308 67.60307 h -14.06769 -14.06769 z"
       id="path22" />
    <path
       style="fill:#fe006d;stroke-width:1"
       d="m 133.49868,200.28346 v -67.60308 h -15.8261 -15.82608 v -10.35539 -10.35538 h 29.60064 29.60077 v 77.95846 77.95846 H 147.2733 133.49868 Z"
       id="path20" />
    <path
       style="fill:#fe006d;stroke-width:1"
       d="m 101.78957,215.03499 v -52.85154 h 13.77462 13.77461 v 52.85154 52.85154 h -13.77461 -13.77462 z"
       id="path18" />
    <path
       style="fill:#fe006d;stroke-width:1"
       d="m 68.045012,202.62807 v -65.25846 h 30.675392 30.675386 v 10.06231 10.0623 h -16.6077 -16.607686 v 55.19616 55.19615 H 82.112703 68.045012 Z"
       id="path16" />
    <path
       style="fill:#fe006d;stroke-width:1"
       d="M 35.2204,200.28346 V 132.68038 H 19.101169 2.9819391 V 122.32499 111.96961 H 49.581171 96.180404 v 10.35538 10.35539 H 79.475017 62.769625 v 67.60308 67.60307 H 48.995011 35.2204 Z"
       id="path828" />
  </g>
</svg>
